<?xml version="1.0" encoding="UTF-8"?>
<COLLADA xmlns="http://www.collada.org/2005/11/COLLADASchema" version="1.4.1">
 <asset>
  <contributor>
   <authoring_tool>SceneKit Collada Exporter v1.0</authoring_tool>
  </contributor>
  <created>2019-10-19T20:27:16Z</created>
  <modified>2019-10-19T20:27:16Z</modified>
  <unit meter="0.010000"/>
  <up_axis>Y_UP</up_axis>
 </asset>
 <library_materials>
  <material id="Legno" name="Legno">
   <instance_effect url="#effect_Legno"/>
  </material>
  <material id="lambert5" name="lambert5">
   <instance_effect url="#effect_lambert5"/>
  </material>
 </library_materials>
 <library_effects>
  <effect id="effect_Legno">
   <profile_COMMON>
    <technique sid="common">
     <phong>
      <ambient>
       <color>0 0 0 1</color>
      </ambient>
      <diffuse>
       <color>0.4 0.08276 0 1</color>
      </diffuse>
      <specular>
       <color>0.5 0.5 0.5 1</color>
      </specular>
      <shininess>
       <float>6.31179</float>
      </shininess>
      <transparent opaque="RGB_ZERO">
       <color>0 0 0 1</color>
      </transparent>
      <transparency>
       <float>0</float>
      </transparency>
      <index_of_refraction>
       <float>1</float>
      </index_of_refraction>
     </phong>
    </technique>
   </profile_COMMON>
   <extra>
    <technique profile="SceneKit">
     <litPerPixel>1</litPerPixel>
     <ambient_diffuse_lock>1</ambient_diffuse_lock>
    </technique>
   </extra>
  </effect>
  <effect id="effect_lambert5">
   <profile_COMMON>
    <technique sid="common">
     <lambert>
      <ambient>
       <color>0 0 0 1</color>
      </ambient>
      <diffuse>
       <color>0.03862 0.4 0 1</color>
      </diffuse>
      <transparent opaque="RGB_ZERO">
       <color>0 0 0 1</color>
      </transparent>
      <transparency>
       <float>0</float>
      </transparency>
      <index_of_refraction>
       <float>1</float>
      </index_of_refraction>
     </lambert>
    </technique>
   </profile_COMMON>
   <extra>
    <technique profile="SceneKit">
     <litPerPixel>1</litPerPixel>
     <ambient_diffuse_lock>1</ambient_diffuse_lock>
    </technique>
   </extra>
  </effect>
 </library_effects>
 <library_geometries>
  <geometry id="geometry1">
   <mesh>
    <source id="pCylinder4-POSITION">
     <float_array id="ID2-array" count="684">-0 -1 -1.48341 0.707107 0.7189 -0.707107 1.04893 -1 -1.04893 0.707107 0.7189 -0.707107 -0 -1 -1.48341 0 0.7189 -1 -1.04893 -1 -1.04893 -0.707107 0.7189 -0.707107 -0 -1 -1.48341 -0 -1 -1.48341 -0.707107 0.7189 -0.707107 0 0.7189 -1 -1.48341 -1 0 -0.707107 0.7189 -0.707107 -1.04893 -1 -1.04893 -0.707107 0.7189 -0.707107 -1.48341 -1 0 -1 0.7189 0 -0.707107 0.7189 0.707107 -1.48341 -1 0 -1.04893 -1 1.04893 -1.48341 -1 0 -0.707107 0.7189 0.707107 -1 0.7189 0 -0.707107 0.7189 0.707107 -0 -1 1.48341 0 0.7189 1 -0 -1 1.48341 -0.707107 0.7189 0.707107 -1.04893 -1 1.04893 0 0.7189 1 -0 -1 1.48341 0.707107 0.7189 0.707107 -0 -1 1.48341 1.04893 -1 1.04893 0.707107 0.7189 0.707107 0.707107 0.7189 0.707107 1.48341 -1 0 1 0.7189 0 1.48341 -1 0 0.707107 0.7189 0.707107 1.04893 -1 1.04893 1.04893 -1 -1.04893 0.707107 0.7189 -0.707107 1.48341 -1 0 1 0.7189 0 1.48341 -1 0 0.707107 0.7189 -0.707107 -1.04893 -1 -1.04893 -0 -1 -1.48341 1.04893 -1 -1.04893 1.48341 -1 0 -1.04893 -1 1.04893 1.04893 -1 -1.04893 -1.04893 -1 1.04893 -1.04893 -1 -1.04893 1.04893 -1 -1.04893 -0 -1 1.48341 1.48341 -1 0 1.04893 -1 1.04893 -1.04893 -1 1.04893 1.48341 -1 0 -0 -1 1.48341 -1.04893 -1 -1.04893 -1.04893 -1 1.04893 -1.48341 -1 0 1.9285 15.9478 0.94319 1.9285 15.9478 -0.471023 1.2214 15.9478 1.23608 1.9285 15.9478 -0.471023 1.9285 15.9478 0.94319 2.2214 15.9478 0.236084 1.2214 15.9478 -0.763916 0.221397 15.9478 0.236084 1.2214 15.9478 1.23608 1.2214 15.9478 -0.763916 1.2214 15.9478 1.23608 1.9285 15.9478 -0.471023 0.221397 15.9478 0.236084 1.2214 15.9478 -0.763916 0.51429 15.9478 -0.471023 1.2214 15.9478 1.23608 0.221397 15.9478 0.236084 0.51429 15.9478 0.94319 0 4.98546 -1 0.034983 10.3721 -0.355234 0.707107 4.98546 -0.707107 0.707107 4.98546 -0.707107 0.034983 10.3721 -0.355234 0.742089 10.3721 -0.062341 -0.707107 4.98546 -0.707107 -0.672124 10.3721 -0.062341 0 4.98546 -1 0 4.98546 -1 -0.672124 10.3721 -0.062341 0.034983 10.3721 -0.355234 -1 4.98546 0 -0.672124 10.3721 -0.062341 -0.707107 4.98546 -0.707107 -0.672124 10.3721 -0.062341 -1 4.98546 0 -0.965017 10.3721 0.644766 -0.707107 4.98546 0.707107 -0.965017 10.3721 0.644766 -1 4.98546 0 -0.965017 10.3721 0.644766 -0.707107 4.98546 0.707107 -0.672124 10.3721 1.35187 -0.672124 10.3721 1.35187 0 4.98546 1 0.034983 10.3721 1.64477 0 4.98546 1 -0.672124 10.3721 1.35187 -0.707107 4.98546 0.707107 0.034983 10.3721 1.64477 0.707107 4.98546 0.707107 0.74209 10.3721 1.35187 0.707107 4.98546 0.707107 0.034983 10.3721 1.64477 0 4.98546 1 1 4.98546 0 1.03498 10.3721 0.644766 0.707107 4.98546 0.707107 0.74209 10.3721 1.35187 0.707107 4.98546 0.707107 1.03498 10.3721 0.644766 0.707107 4.98546 -0.707107 0.742089 10.3721 -0.062341 1 4.98546 0 1.03498 10.3721 0.644766 1 4.98546 0 0.742089 10.3721 -0.062341 0.034983 10.3721 -0.355234 1.2214 15.9478 -0.763916 0.742089 10.3721 -0.062341 0.742089 10.3721 -0.062341 1.2214 15.9478 -0.763916 1.9285 15.9478 -0.471023 -0.672124 10.3721 -0.062341 0.51429 15.9478 -0.471023 0.034983 10.3721 -0.355234 0.034983 10.3721 -0.355234 0.51429 15.9478 -0.471023 1.2214 15.9478 -0.763916 0.221397 15.9478 0.236084 -0.672124 10.3721 -0.062341 -0.965017 10.3721 0.644766 -0.672124 10.3721 -0.062341 0.221397 15.9478 0.236084 0.51429 15.9478 -0.471023 0.51429 15.9478 0.94319 -0.965017 10.3721 0.644766 -0.672124 10.3721 1.35187 -0.965017 10.3721 0.644766 0.51429 15.9478 0.94319 0.221397 15.9478 0.236084 0.51429 15.9478 0.94319 0.034983 10.3721 1.64477 1.2214 15.9478 1.23608 0.034983 10.3721 1.64477 0.51429 15.9478 0.94319 -0.672124 10.3721 1.35187 1.2214 15.9478 1.23608 0.74209 10.3721 1.35187 1.9285 15.9478 0.94319 0.74209 10.3721 1.35187 1.2214 15.9478 1.23608 0.034983 10.3721 1.64477 1.03498 10.3721 0.644766 1.9285 15.9478 0.94319 0.74209 10.3721 1.35187 1.9285 15.9478 0.94319 1.03498 10.3721 0.644766 2.2214 15.9478 0.236084 0.742089 10.3721 -0.062341 2.2214 15.9478 0.236084 1.03498 10.3721 0.644766 2.2214 15.9478 0.236084 0.742089 10.3721 -0.062341 1.9285 15.9478 -0.471023 1 0.7189 0 1 4.98546 0 0.707107 0.7189 0.707107 0.707107 4.98546 0.707107 0.707107 0.7189 0.707107 1 4.98546 0 0 4.98546 1 0 0.7189 1 0.707107 4.98546 0.707107 0.707107 4.98546 0.707107 0 0.7189 1 0.707107 0.7189 0.707107 -0.707107 4.98546 0.707107 -0.707107 0.7189 0.707107 0 4.98546 1 0 4.98546 1 -0.707107 0.7189 0.707107 0 0.7189 1 -0.707107 4.98546 0.707107 -1 0.7189 0 -0.707107 0.7189 0.707107 -1 0.7189 0 -0.707107 4.98546 0.707107 -1 4.98546 0 -1 4.98546 0 -0.707107 0.7189 -0.707107 -1 0.7189 0 -0.707107 0.7189 -0.707107 -1 4.98546 0 -0.707107 4.98546 -0.707107 -0.707107 0.7189 -0.707107 -0.707107 4.98546 -0.707107 0 0.7189 -1 0 0.7189 -1 -0.707107 4.98546 -0.707107 0 4.98546 -1 0 0.7189 -1 0 4.98546 -1 0.707107 0.7189 -0.707107 0.707107 0.7189 -0.707107 0 4.98546 -1 0.707107 4.98546 -0.707107 0.707107 0.7189 -0.707107 0.707107 4.98546 -0.707107 1 0.7189 0 1 4.98546 0 1 0.7189 0 0.707107 4.98546 -0.707107 </float_array>
     <technique_common>
      <accessor source="#ID2-array" count="228" stride="3">
       <param name="X" type="float"/>
       <param name="Y" type="float"/>
       <param name="Z" type="float"/>
      </accessor>
     </technique_common>
    </source>
    <source id="pCylinder4-Normal0">
     <float_array id="ID3-array" count="684">0.370386 0.251475 -0.89419 0.38113 0.090004 -0.92013 0.370386 0.251475 -0.89419 0.38113 0.090004 -0.92013 0.370386 0.251475 -0.89419 0.38113 0.090004 -0.92013 -0.370386 0.251475 -0.89419 -0.38113 0.090004 -0.92013 -0.370386 0.251475 -0.89419 -0.370386 0.251475 -0.89419 -0.38113 0.090004 -0.92013 -0.38113 0.090004 -0.92013 -0.89419 0.251474 -0.370386 -0.92013 0.090004 -0.38113 -0.89419 0.251474 -0.370386 -0.92013 0.090004 -0.38113 -0.89419 0.251474 -0.370386 -0.92013 0.090004 -0.38113 -0.92013 0.090004 0.38113 -0.89419 0.251474 0.370386 -0.89419 0.251474 0.370386 -0.89419 0.251474 0.370386 -0.92013 0.090004 0.38113 -0.92013 0.090004 0.38113 -0.38113 0.090004 0.92013 -0.370386 0.251475 0.89419 -0.38113 0.090004 0.92013 -0.370386 0.251475 0.89419 -0.38113 0.090004 0.92013 -0.370386 0.251475 0.89419 0.38113 0.090004 0.92013 0.370385 0.251475 0.89419 0.38113 0.090004 0.92013 0.370385 0.251475 0.89419 0.370385 0.251475 0.89419 0.38113 0.090004 0.92013 0.92013 0.090004 0.38113 0.89419 0.251474 0.370385 0.92013 0.090004 0.38113 0.89419 0.251474 0.370385 0.92013 0.090004 0.38113 0.89419 0.251474 0.370385 0.89419 0.251474 -0.370386 0.92013 0.090004 -0.38113 0.89419 0.251474 -0.370386 0.92013 0.090004 -0.38113 0.89419 0.251474 -0.370386 0.92013 0.090004 -0.38113 0 -1 0 0 -1 0 0 -1 0 0 -1 0 0 -1 0 0 -1 0 0 -1 0 0 -1 0 0 -1 0 0 -1 0 0 -1 0 0 -1 0 0 -1 0 0 -1 0 0 -1 0 0 -1 0 0 -1 0 0 -1 0 0 1 0 0 1 0 0 1 0 0 1 0 0 1 0 0 1 0 0 1 0 0 1 0 0 1 0 0 1 0 0 1 0 0 1 0 0 1 0 0 1 0 0 1 0 0 1 0 0 1 0 0 1 0 0.382009 0.059327 -0.922252 0.382648 -0.013529 -0.923795 0.381969 0.061065 -0.922155 0.381969 0.061065 -0.922155 0.382648 -0.013529 -0.923795 0.382496 -0.031273 -0.923428 -0.381907 0.063658 -0.922006 -0.381861 0.065524 -0.921894 -0.381941 0.062262 -0.922087 -0.381941 0.062262 -0.922087 -0.381861 0.065524 -0.921894 -0.381999 0.059781 -0.922227 -0.923471 0.029738 -0.382514 -0.918155 0.111146 -0.380312 -0.923518 0.027988 -0.382534 -0.918155 0.111146 -0.380312 -0.923471 0.029738 -0.382514 -0.9183 0.109733 -0.380372 -0.923638 -0.022883 0.382583 -0.920197 0.0892 0.381158 -0.923666 -0.021475 0.382595 -0.920197 0.0892 0.381158 -0.923638 -0.022883 0.382583 -0.91928 0.099661 0.380778 -0.382648 0.013529 0.923795 -0.381969 -0.061065 0.922155 -0.382496 0.031273 0.923428 -0.381969 -0.061065 0.922155 -0.382648 0.013529 0.923795 -0.382009 -0.059327 0.922252 0.381861 -0.065524 0.921894 0.381941 -0.062263 0.922087 0.381999 -0.059781 0.922227 0.381941 -0.062263 0.922087 0.381861 -0.065524 0.921894 0.381907 -0.063658 0.922006 0.923518 -0.027988 0.382534 0.918155 -0.111146 0.380313 0.923471 -0.029738 0.382514 0.9183 -0.109733 0.380373 0.923471 -0.029738 0.382514 0.918155 -0.111146 0.380313 0.923666 0.021475 -0.382595 0.920197 -0.0892 -0.381158 0.923638 0.022883 -0.382583 0.91928 -0.099661 -0.380778 0.923638 0.022883 -0.382583 0.920197 -0.0892 -0.381158 0.382648 -0.013529 -0.923795 0.378497 -0.147514 -0.913772 0.382496 -0.031273 -0.923428 0.382496 -0.031273 -0.923428 0.378497 -0.147514 -0.913772 0.378497 -0.147514 -0.913772 -0.381861 0.065524 -0.921894 -0.382648 0.01371 -0.923793 -0.381999 0.059781 -0.922227 -0.381999 0.059781 -0.922227 -0.382648 0.01371 -0.923793 -0.382648 0.01371 -0.923793 -0.911032 0.166193 -0.377361 -0.918155 0.111146 -0.380312 -0.9183 0.109733 -0.380372 -0.918155 0.111146 -0.380312 -0.911032 0.166193 -0.377361 -0.911031 0.166193 -0.377361 -0.901416 0.219174 0.373379 -0.920197 0.0892 0.381158 -0.91928 0.099661 0.380778 -0.920197 0.0892 0.381158 -0.901416 0.219174 0.373379 -0.901416 0.219174 0.373379 -0.378497 0.147514 0.913772 -0.382496 0.031273 0.923428 -0.378497 0.147514 0.913772 -0.382496 0.031273 0.923428 -0.378497 0.147514 0.913772 -0.382648 0.013529 0.923795 0.382648 -0.01371 0.923793 0.381999 -0.059781 0.922227 0.382648 -0.01371 0.923793 0.381999 -0.059781 0.922227 0.382648 -0.01371 0.923793 0.381861 -0.065524 0.921894 0.918155 -0.111146 0.380313 0.911031 -0.166193 0.377362 0.9183 -0.109733 0.380373 0.911031 -0.166193 0.377362 0.918155 -0.111146 0.380313 0.911031 -0.166193 0.377362 0.920197 -0.0892 -0.381158 0.901416 -0.219174 -0.373379 0.91928 -0.099661 -0.380778 0.901416 -0.219174 -0.373379 0.920197 -0.0892 -0.381158 0.901416 -0.219174 -0.373379 0.92013 0.090004 0.38113 0.923518 -0.027988 0.382534 0.92013 0.090004 0.38113 0.923471 -0.029738 0.382514 0.92013 0.090004 0.38113 0.923518 -0.027988 0.382534 0.381907 -0.063658 0.922006 0.38113 0.090004 0.92013 0.381941 -0.062263 0.922087 0.381941 -0.062263 0.922087 0.38113 0.090004 0.92013 0.38113 0.090004 0.92013 -0.382009 -0.059327 0.922252 -0.38113 0.090004 0.92013 -0.381969 -0.061065 0.922155 -0.381969 -0.061065 0.922155 -0.38113 0.090004 0.92013 -0.38113 0.090004 0.92013 -0.923638 -0.022883 0.382583 -0.92013 0.090004 0.38113 -0.92013 0.090004 0.38113 -0.92013 0.090004 0.38113 -0.923638 -0.022883 0.382583 -0.923666 -0.021475 0.382595 -0.923471 0.029738 -0.382514 -0.92013 0.090004 -0.38113 -0.92013 0.090004 -0.38113 -0.92013 0.090004 -0.38113 -0.923471 0.029738 -0.382514 -0.923518 0.027988 -0.382534 -0.38113 0.090004 -0.92013 -0.381907 0.063658 -0.922006 -0.38113 0.090004 -0.92013 -0.38113 0.090004 -0.92013 -0.381907 0.063658 -0.922006 -0.381941 0.062262 -0.922087 0.38113 0.090004 -0.92013 0.382009 0.059327 -0.922252 0.38113 0.090004 -0.92013 0.38113 0.090004 -0.92013 0.382009 0.059327 -0.922252 0.381969 0.061065 -0.922155 0.92013 0.090004 -0.38113 0.923666 0.021475 -0.382595 0.92013 0.090004 -0.38113 0.923638 0.022883 -0.382583 0.92013 0.090004 -0.38113 0.923666 0.021475 -0.382595 </float_array>
     <technique_common>
      <accessor source="#ID3-array" count="228" stride="3">
       <param name="X" type="float"/>
       <param name="Y" type="float"/>
       <param name="Z" type="float"/>
      </accessor>
     </technique_common>
    </source>
    <source id="pCylinder4-UV0">
     <float_array id="ID4-array" count="456">0.40625 0.3125 0.375 0.420462 0.375 0.3125 0.375 0.420462 0.40625 0.3125 0.40625 0.420462 0.4375 0.3125 0.4375 0.420462 0.40625 0.3125 0.40625 0.3125 0.4375 0.420462 0.40625 0.420462 0.46875 0.3125 0.4375 0.420462 0.4375 0.3125 0.4375 0.420462 0.46875 0.3125 0.46875 0.420462 0.5 0.420462 0.46875 0.3125 0.5 0.3125 0.46875 0.3125 0.5 0.420462 0.46875 0.420462 0.5 0.420462 0.53125 0.3125 0.53125 0.420462 0.53125 0.3125 0.5 0.420462 0.5 0.3125 0.53125 0.420462 0.53125 0.3125 0.5625 0.420462 0.53125 0.3125 0.5625 0.3125 0.5625 0.420462 0.5625 0.420462 0.59375 0.3125 0.59375 0.420462 0.59375 0.3125 0.5625 0.420462 0.5625 0.3125 0.625 0.3125 0.625 0.420462 0.59375 0.3125 0.59375 0.420462 0.59375 0.3125 0.625 0.420462 0.389515 0.045765 0.5 0 0.610485 0.045765 0.65625 0.15625 0.389515 0.266735 0.610485 0.045765 0.389515 0.266735 0.389515 0.045765 0.610485 0.045765 0.5 0.3125 0.65625 0.15625 0.610485 0.266735 0.389515 0.266735 0.65625 0.15625 0.5 0.3125 0.389515 0.045765 0.389515 0.266735 0.34375 0.15625 0.610485 0.733265 0.610485 0.954235 0.5 0.6875 0.610485 0.954235 0.610485 0.733265 0.65625 0.84375 0.5 1 0.34375 0.84375 0.5 0.6875 0.5 1 0.5 0.6875 0.610485 0.954235 0.34375 0.84375 0.5 1 0.389515 0.954235 0.5 0.6875 0.34375 0.84375 0.389515 0.733265 0.5 1 0.5 1 0.610485 0.954235 0.610485 0.954235 0.5 1 0.610485 0.954235 0.389515 0.954235 0.389515 0.954235 0.5 1 0.5 1 0.389515 0.954235 0.5 1 0.34375 0.84375 0.389515 0.954235 0.389515 0.954235 0.389515 0.954235 0.34375 0.84375 0.34375 0.84375 0.389515 0.733265 0.34375 0.84375 0.34375 0.84375 0.34375 0.84375 0.389515 0.733265 0.389515 0.733265 0.389515 0.733265 0.5 0.6875 0.5 0.6875 0.5 0.6875 0.389515 0.733265 0.389515 0.733265 0.5 0.6875 0.610485 0.733265 0.610485 0.733265 0.610485 0.733265 0.5 0.6875 0.5 0.6875 0.65625 0.84375 0.65625 0.84375 0.610485 0.733265 0.610485 0.733265 0.610485 0.733265 0.65625 0.84375 0.610485 0.954235 0.610485 0.954235 0.65625 0.84375 0.65625 0.84375 0.65625 0.84375 0.610485 0.954235 0.5 1 0.5 1 0.610485 0.954235 0.610485 0.954235 0.5 1 0.610485 0.954235 0.389515 0.954235 0.389515 0.954235 0.5 1 0.5 1 0.389515 0.954235 0.5 1 0.34375 0.84375 0.389515 0.954235 0.34375 0.84375 0.389515 0.954235 0.34375 0.84375 0.389515 0.954235 0.389515 0.733265 0.34375 0.84375 0.389515 0.733265 0.34375 0.84375 0.389515 0.733265 0.34375 0.84375 0.389515 0.733265 0.5 0.6875 0.5 0.6875 0.5 0.6875 0.389515 0.733265 0.389515 0.733265 0.5 0.6875 0.610485 0.733265 0.610485 0.733265 0.610485 0.733265 0.5 0.6875 0.5 0.6875 0.65625 0.84375 0.610485 0.733265 0.610485 0.733265 0.610485 0.733265 0.65625 0.84375 0.65625 0.84375 0.610485 0.954235 0.65625 0.84375 0.65625 0.84375 0.65625 0.84375 0.610485 0.954235 0.610485 0.954235 0.59375 0.420462 0.59375 0.68844 0.5625 0.420462 0.5625 0.68844 0.5625 0.420462 0.59375 0.68844 0.53125 0.68844 0.53125 0.420462 0.5625 0.68844 0.5625 0.68844 0.53125 0.420462 0.5625 0.420462 0.5 0.68844 0.5 0.420462 0.53125 0.68844 0.53125 0.68844 0.5 0.420462 0.53125 0.420462 0.5 0.68844 0.46875 0.420462 0.5 0.420462 0.46875 0.420462 0.5 0.68844 0.46875 0.68844 0.46875 0.68844 0.4375 0.420462 0.46875 0.420462 0.4375 0.420462 0.46875 0.68844 0.4375 0.68844 0.4375 0.420462 0.4375 0.68844 0.40625 0.420462 0.40625 0.420462 0.4375 0.68844 0.40625 0.68844 0.40625 0.420462 0.40625 0.68844 0.375 0.420462 0.375 0.420462 0.40625 0.68844 0.375 0.68844 0.625 0.420462 0.625 0.68844 0.59375 0.420462 0.59375 0.68844 0.59375 0.420462 0.625 0.68844 </float_array>
     <technique_common>
      <accessor source="#ID4-array" count="228" stride="2">
       <param name="S" type="float"/>
       <param name="T" type="float"/>
      </accessor>
     </technique_common>
    </source>
    <vertices id="pCylinder4-POSITION-vertices">
     <input semantic="POSITION" source="#pCylinder4-POSITION"/>
    </vertices>
    <triangles count="76" material="geometryElement5">
     <input semantic="VERTEX" offset="0" source="#pCylinder4-POSITION-vertices"/>
     <input semantic="NORMAL" offset="0" source="#pCylinder4-Normal0"/>
     <input semantic="TEXCOORD" offset="0" source="#pCylinder4-UV0" set="1"/>
     <p>0 1 2 3 4 5 6 7 8 9 10 11 12 13 14 15 16 17 18 19 20 21 22 23 24 25 26 27 28 29 30 31 32 33 34 35 36 37 38 39 40 41 42 43 44 45 46 47 48 49 50 51 52 53 54 55 56 57 58 59 60 61 62 63 64 65 66 67 68 69 70 71 72 73 74 75 76 77 78 79 80 81 82 83 84 85 86 87 88 89 90 91 92 93 94 95 96 97 98 99 100 101 102 103 104 105 106 107 108 109 110 111 112 113 114 115 116 117 118 119 120 121 122 123 124 125 126 127 128 129 130 131 132 133 134 135 136 137 138 139 140 141 142 143 144 145 146 147 148 149 150 151 152 153 154 155 156 157 158 159 160 161 162 163 164 165 166 167 168 169 170 171 172 173 174 175 176 177 178 179 180 181 182 183 184 185 186 187 188 189 190 191 192 193 194 195 196 197 198 199 200 201 202 203 204 205 206 207 208 209 210 211 212 213 214 215 216 217 218 219 220 221 222 223 224 225 226 227 </p>
    </triangles>
   </mesh>
  </geometry>
  <geometry id="geometry6">
   <mesh>
    <source id="pCone1-POSITION">
     <float_array id="ID7-array" count="360">0.809018 -0.874115 -0.587786 0.951057 -1 -0.309017 0 -1 0 0.587786 -1 -0.809017 0.809018 -0.874115 -0.587786 0 -1 0 0.309017 -0.874115 -0.951057 0.587786 -1 -0.809017 0 -1 0 0 -1 -1 0.309017 -0.874115 -0.951057 0 -1 0 -0.309017 -0.874115 -0.951057 0 -1 -1 0 -1 0 -0.587785 -1 -0.809017 -0.309017 -0.874115 -0.951057 0 -1 0 -0.809017 -0.874115 -0.587785 -0.587785 -1 -0.809017 0 -1 0 -0.951057 -1 -0.309017 -0.809017 -0.874115 -0.587785 0 -1 0 -1 -0.874115 0 -0.951057 -1 -0.309017 0 -1 0 -0.951057 -1 0.309017 -1 -0.874115 0 0 -1 0 -0.809017 -0.874115 0.587785 -0.951057 -1 0.309017 0 -1 0 -0.587785 -1 0.809017 -0.809017 -0.874115 0.587785 0 -1 0 -0.309017 -0.874115 0.951057 -0.587785 -1 0.809017 0 -1 0 -0 -1 1 -0.309017 -0.874115 0.951057 0 -1 0 0.309017 -0.874115 0.951057 -0 -1 1 0 -1 0 0.587785 -1 0.809017 0.309017 -0.874115 0.951057 0 -1 0 0.809017 -0.874115 0.587785 0.587785 -1 0.809017 0 -1 0 0.951057 -1 0.309017 0.809017 -0.874115 0.587785 0 -1 0 1 -0.874115 0 0.951057 -1 0.309017 0 -1 0 0.951057 -1 -0.309017 1 -0.874115 0 0 -1 0 0.951057 -1 -0.309017 0.809018 -0.874115 -0.587786 0 1 0 0.809018 -0.874115 -0.587786 0.587786 -1 -0.809017 0 1 0 0.587786 -1 -0.809017 0.309017 -0.874115 -0.951057 0 1 0 0.309017 -0.874115 -0.951057 0 -1 -1 0 1 0 0 -1 -1 -0.309017 -0.874115 -0.951057 0 1 0 -0.309017 -0.874115 -0.951057 -0.587785 -1 -0.809017 0 1 0 -0.587785 -1 -0.809017 -0.809017 -0.874115 -0.587785 0 1 0 -0.809017 -0.874115 -0.587785 -0.951057 -1 -0.309017 0 1 0 -0.951057 -1 -0.309017 -1 -0.874115 0 0 1 0 -1 -0.874115 0 -0.951057 -1 0.309017 0 1 0 -0.951057 -1 0.309017 -0.809017 -0.874115 0.587785 0 1 0 -0.809017 -0.874115 0.587785 -0.587785 -1 0.809017 0 1 0 -0.587785 -1 0.809017 -0.309017 -0.874115 0.951057 0 1 0 -0.309017 -0.874115 0.951057 -0 -1 1 0 1 0 -0 -1 1 0.309017 -0.874115 0.951057 0 1 0 0.309017 -0.874115 0.951057 0.587785 -1 0.809017 0 1 0 0.587785 -1 0.809017 0.809017 -0.874115 0.587785 0 1 0 0.809017 -0.874115 0.587785 0.951057 -1 0.309017 0 1 0 0.951057 -1 0.309017 1 -0.874115 0 0 1 0 1 -0.874115 0 0.951057 -1 -0.309017 0 1 0 </float_array>
     <technique_common>
      <accessor source="#ID7-array" count="120" stride="3">
       <param name="X" type="float"/>
       <param name="Y" type="float"/>
       <param name="Z" type="float"/>
      </accessor>
     </technique_common>
    </source>
    <source id="pCone1-Normal0">
     <float_array id="ID8-array" count="360">-0.116583 -0.926103 -0.358805 -0.116583 -0.926103 -0.358805 -0.116583 -0.926103 -0.358805 0.305218 -0.926103 0.221754 0.305218 -0.926103 0.221754 0.305218 -0.926103 0.221754 -0.305218 -0.926103 -0.221754 -0.305218 -0.926103 -0.221754 -0.305218 -0.926103 -0.221754 0.37727 -0.926103 0 0.37727 -0.926103 0 0.37727 -0.926103 0 -0.37727 -0.926103 0 -0.37727 -0.926103 0 -0.37727 -0.926103 0 0.305218 -0.926103 -0.221754 0.305218 -0.926103 -0.221754 0.305218 -0.926103 -0.221754 -0.305218 -0.926103 0.221754 -0.305218 -0.926103 0.221754 -0.305218 -0.926103 0.221754 0.116583 -0.926103 -0.358805 0.116583 -0.926103 -0.358805 0.116583 -0.926103 -0.358805 -0.116583 -0.926103 0.358805 -0.116583 -0.926103 0.358806 -0.116583 -0.926103 0.358806 -0.116583 -0.926103 -0.358805 -0.116583 -0.926103 -0.358805 -0.116583 -0.926103 -0.358805 0.116583 -0.926103 0.358805 0.116583 -0.926103 0.358805 0.116583 -0.926103 0.358805 -0.305218 -0.926103 -0.221754 -0.305218 -0.926103 -0.221754 -0.305218 -0.926103 -0.221754 0.305218 -0.926103 0.221754 0.305218 -0.926103 0.221754 0.305218 -0.926103 0.221754 -0.37727 -0.926103 -0 -0.37727 -0.926103 -0 -0.37727 -0.926103 -0 0.37727 -0.926103 0 0.37727 -0.926103 0 0.37727 -0.926103 0 -0.305218 -0.926103 0.221754 -0.305218 -0.926103 0.221754 -0.305218 -0.926103 0.221754 0.305218 -0.926103 -0.221754 0.305218 -0.926103 -0.221754 0.305218 -0.926103 -0.221754 -0.116583 -0.926103 0.358805 -0.116583 -0.926103 0.358805 -0.116583 -0.926103 0.358805 0.116583 -0.926103 -0.358806 0.116583 -0.926103 -0.358806 0.116583 -0.926103 -0.358806 0.116583 -0.926103 0.358805 0.116583 -0.926103 0.358805 0.116583 -0.926103 0.358805 0.862464 0.446847 -0.237661 0.862464 0.446847 -0.237661 0.862464 0.446847 -0.237661 0.492545 0.446847 -0.746811 0.492545 0.446847 -0.746811 0.492546 0.446847 -0.746811 0.558054 0.446847 -0.699216 0.558054 0.446847 -0.699216 0.558054 0.446847 -0.699216 -0.040487 0.446847 -0.893694 -0.040487 0.446847 -0.893694 -0.040487 0.446847 -0.893694 0.040486 0.446847 -0.893694 0.040486 0.446847 -0.893694 0.040486 0.446847 -0.893694 -0.558055 0.446847 -0.699216 -0.558055 0.446847 -0.699216 -0.558055 0.446847 -0.699216 -0.492546 0.446847 -0.746811 -0.492546 0.446847 -0.746811 -0.492546 0.446847 -0.746811 -0.862464 0.446847 -0.237661 -0.862464 0.446847 -0.237661 -0.862464 0.446847 -0.237661 -0.837442 0.446847 -0.314672 -0.837442 0.446847 -0.314672 -0.837442 0.446847 -0.314672 -0.837442 0.446847 0.314672 -0.837442 0.446847 0.314672 -0.837442 0.446847 0.314672 -0.862464 0.446847 0.237662 -0.862464 0.446847 0.237662 -0.862464 0.446847 0.237662 -0.492546 0.446847 0.746811 -0.492546 0.446847 0.746811 -0.492546 0.446847 0.746811 -0.558054 0.446847 0.699216 -0.558054 0.446847 0.699216 -0.558054 0.446847 0.699216 0.040487 0.446847 0.893694 0.040487 0.446847 0.893694 0.040487 0.446847 0.893694 -0.040487 0.446847 0.893694 -0.040487 0.446847 0.893694 -0.040487 0.446847 0.893694 0.558054 0.446847 0.699216 0.558054 0.446847 0.699216 0.558054 0.446847 0.699216 0.492546 0.446847 0.746811 0.492546 0.446847 0.746811 0.492546 0.446847 0.746811 0.862464 0.446847 0.237662 0.862464 0.446847 0.237662 0.862464 0.446847 0.237662 0.837442 0.446847 0.314672 0.837442 0.446847 0.314672 0.837442 0.446847 0.314672 0.837443 0.446847 -0.31467 0.837443 0.446847 -0.31467 0.837443 0.446847 -0.31467 </float_array>
     <technique_common>
      <accessor source="#ID8-array" count="120" stride="3">
       <param name="X" type="float"/>
       <param name="Y" type="float"/>
       <param name="Z" type="float"/>
      </accessor>
     </technique_common>
    </source>
    <source id="pCone1-UV0">
     <float_array id="ID9-array" count="240">0.702254 0.103054 0.737764 0.172746 0.5 0.25 0.646946 0.047746 0.702254 0.103054 0.5 0.25 0.577254 0.012236 0.646946 0.047746 0.5 0.25 0.5 0 0.577254 0.012236 0.5 0.25 0.422746 0.012236 0.5 0 0.5 0.25 0.353054 0.047746 0.422746 0.012236 0.5 0.25 0.297746 0.103054 0.353054 0.047746 0.5 0.25 0.262236 0.172746 0.297746 0.103054 0.5 0.25 0.25 0.25 0.262236 0.172746 0.5 0.25 0.262236 0.327254 0.25 0.25 0.5 0.25 0.297746 0.396946 0.262236 0.327254 0.5 0.25 0.353054 0.452254 0.297746 0.396946 0.5 0.25 0.422746 0.487764 0.353054 0.452254 0.5 0.25 0.5 0.5 0.422746 0.487764 0.5 0.25 0.577254 0.487764 0.5 0.5 0.5 0.25 0.646946 0.452254 0.577254 0.487764 0.5 0.25 0.702254 0.396946 0.646946 0.452254 0.5 0.25 0.737764 0.327254 0.702254 0.396946 0.5 0.25 0.75 0.25 0.737764 0.327254 0.5 0.25 0.737764 0.172746 0.75 0.25 0.5 0.25 0.25 0.5 0.275 0.5 0.5 1 0.275 0.5 0.3 0.5 0.5 1 0.3 0.5 0.325 0.5 0.5 1 0.325 0.5 0.35 0.5 0.5 1 0.35 0.5 0.375 0.5 0.5 1 0.375 0.5 0.4 0.5 0.5 1 0.4 0.5 0.425 0.5 0.5 1 0.425 0.5 0.45 0.5 0.5 1 0.45 0.5 0.475 0.5 0.5 1 0.475 0.5 0.5 0.5 0.5 1 0.5 0.5 0.525 0.5 0.5 1 0.525 0.5 0.55 0.5 0.5 1 0.55 0.5 0.575 0.5 0.5 1 0.575 0.5 0.6 0.5 0.5 1 0.6 0.5 0.625 0.5 0.5 1 0.625 0.5 0.65 0.5 0.5 1 0.65 0.5 0.675 0.5 0.5 1 0.675 0.5 0.7 0.5 0.5 1 0.7 0.5 0.725 0.5 0.5 1 0.725 0.5 0.75 0.5 0.5 1 </float_array>
     <technique_common>
      <accessor source="#ID9-array" count="120" stride="2">
       <param name="S" type="float"/>
       <param name="T" type="float"/>
      </accessor>
     </technique_common>
    </source>
    <vertices id="pCone1-POSITION-vertices">
     <input semantic="POSITION" source="#pCone1-POSITION"/>
    </vertices>
    <triangles count="40" material="geometryElement10">
     <input semantic="VERTEX" offset="0" source="#pCone1-POSITION-vertices"/>
     <input semantic="NORMAL" offset="0" source="#pCone1-Normal0"/>
     <input semantic="TEXCOORD" offset="0" source="#pCone1-UV0" set="1"/>
     <p>0 1 2 3 4 5 6 7 8 9 10 11 12 13 14 15 16 17 18 19 20 21 22 23 24 25 26 27 28 29 30 31 32 33 34 35 36 37 38 39 40 41 42 43 44 45 46 47 48 49 50 51 52 53 54 55 56 57 58 59 60 61 62 63 64 65 66 67 68 69 70 71 72 73 74 75 76 77 78 79 80 81 82 83 84 85 86 87 88 89 90 91 92 93 94 95 96 97 98 99 100 101 102 103 104 105 106 107 108 109 110 111 112 113 114 115 116 117 118 119 </p>
    </triangles>
   </mesh>
  </geometry>
  <geometry id="geometry11">
   <mesh>
    <source id="pCone2-POSITION">
     <float_array id="ID12-array" count="360">0.809018 -0.863976 -0.587786 0.951057 -1 -0.309017 0 -1 0 0.587786 -1 -0.809017 0.809018 -0.863976 -0.587786 0 -1 0 0.309017 -0.863976 -0.951057 0.587786 -1 -0.809017 0 -1 0 0 -1 -1 0.309017 -0.863976 -0.951057 0 -1 0 -0.309017 -0.863976 -0.951057 0 -1 -1 0 -1 0 -0.587785 -1 -0.809017 -0.309017 -0.863976 -0.951057 0 -1 0 -0.809017 -0.863976 -0.587785 -0.587785 -1 -0.809017 0 -1 0 -0.951057 -1 -0.309017 -0.809017 -0.863976 -0.587785 0 -1 0 -1 -0.863976 0 -0.951057 -1 -0.309017 0 -1 0 -0.951057 -1 0.309017 -1 -0.863976 0 0 -1 0 -0.809017 -0.863976 0.587785 -0.951057 -1 0.309017 0 -1 0 -0.587785 -1 0.809017 -0.809017 -0.863976 0.587785 0 -1 0 -0.309017 -0.863976 0.951057 -0.587785 -1 0.809017 0 -1 0 -0 -1 1 -0.309017 -0.863976 0.951057 0 -1 0 0.309017 -0.863976 0.951057 -0 -1 1 0 -1 0 0.587785 -1 0.809017 0.309017 -0.863976 0.951057 0 -1 0 0.809017 -0.863976 0.587785 0.587785 -1 0.809017 0 -1 0 0.951057 -1 0.309017 0.809017 -0.863976 0.587785 0 -1 0 1 -0.863976 0 0.951057 -1 0.309017 0 -1 0 0.951057 -1 -0.309017 1 -0.863976 0 0 -1 0 0.951057 -1 -0.309017 0.809018 -0.863976 -0.587786 0 1 0 0.809018 -0.863976 -0.587786 0.587786 -1 -0.809017 0 1 0 0.587786 -1 -0.809017 0.309017 -0.863976 -0.951057 0 1 0 0.309017 -0.863976 -0.951057 0 -1 -1 0 1 0 0 -1 -1 -0.309017 -0.863976 -0.951057 0 1 0 -0.309017 -0.863976 -0.951057 -0.587785 -1 -0.809017 0 1 0 -0.587785 -1 -0.809017 -0.809017 -0.863976 -0.587785 0 1 0 -0.809017 -0.863976 -0.587785 -0.951057 -1 -0.309017 0 1 0 -0.951057 -1 -0.309017 -1 -0.863976 0 0 1 0 -1 -0.863976 0 -0.951057 -1 0.309017 0 1 0 -0.951057 -1 0.309017 -0.809017 -0.863976 0.587785 0 1 0 -0.809017 -0.863976 0.587785 -0.587785 -1 0.809017 0 1 0 -0.587785 -1 0.809017 -0.309017 -0.863976 0.951057 0 1 0 -0.309017 -0.863976 0.951057 -0 -1 1 0 1 0 -0 -1 1 0.309017 -0.863976 0.951057 0 1 0 0.309017 -0.863976 0.951057 0.587785 -1 0.809017 0 1 0 0.587785 -1 0.809017 0.809017 -0.863976 0.587785 0 1 0 0.809017 -0.863976 0.587785 0.951057 -1 0.309017 0 1 0 0.951057 -1 0.309017 1 -0.863976 0 0 1 0 1 -0.863976 0 0.951057 -1 -0.309017 0 1 0 </float_array>
     <technique_common>
      <accessor source="#ID12-array" count="120" stride="3">
       <param name="X" type="float"/>
       <param name="Y" type="float"/>
       <param name="Z" type="float"/>
      </accessor>
     </technique_common>
    </source>
    <source id="pCone2-Normal0">
     <float_array id="ID13-array" count="360">-0.124496 -0.915253 -0.383161 -0.124496 -0.915253 -0.383161 -0.124496 -0.915253 -0.383161 0.325936 -0.915253 0.236807 0.325936 -0.915253 0.236807 0.325936 -0.915253 0.236807 -0.325936 -0.915253 -0.236807 -0.325936 -0.915253 -0.236807 -0.325936 -0.915253 -0.236807 0.402879 -0.915253 0 0.402879 -0.915253 0 0.402879 -0.915253 0 -0.402879 -0.915253 0 -0.402879 -0.915253 0 -0.402879 -0.915253 0 0.325936 -0.915253 -0.236807 0.325936 -0.915253 -0.236807 0.325936 -0.915253 -0.236807 -0.325936 -0.915253 0.236807 -0.325936 -0.915253 0.236807 -0.325936 -0.915253 0.236807 0.124496 -0.915253 -0.383161 0.124496 -0.915253 -0.383161 0.124497 -0.915253 -0.383161 -0.124497 -0.915253 0.383161 -0.124497 -0.915253 0.383161 -0.124497 -0.915253 0.383161 -0.124497 -0.915253 -0.383161 -0.124497 -0.915253 -0.383161 -0.124497 -0.915253 -0.383161 0.124497 -0.915253 0.383161 0.124497 -0.915253 0.383161 0.124497 -0.915253 0.383161 -0.325936 -0.915253 -0.236806 -0.325936 -0.915253 -0.236806 -0.325936 -0.915253 -0.236806 0.325936 -0.915253 0.236806 0.325936 -0.915253 0.236806 0.325936 -0.915253 0.236807 -0.402879 -0.915253 0 -0.402879 -0.915253 0 -0.402879 -0.915253 0 0.402879 -0.915253 0 0.402879 -0.915253 0 0.402879 -0.915253 0 -0.325936 -0.915253 0.236806 -0.325936 -0.915253 0.236806 -0.325936 -0.915253 0.236806 0.325936 -0.915253 -0.236807 0.325936 -0.915253 -0.236807 0.325936 -0.915253 -0.236807 -0.124497 -0.915253 0.383161 -0.124497 -0.915253 0.383161 -0.124497 -0.915253 0.383161 0.124497 -0.915253 -0.383161 0.124497 -0.915253 -0.383161 0.124497 -0.915253 -0.383161 0.124497 -0.915253 0.383161 0.124497 -0.915253 0.383161 0.124497 -0.915253 0.383161 0.866388 0.446534 -0.223562 0.866388 0.446534 -0.223562 0.866388 0.446534 -0.223562 0.480348 0.446534 -0.754899 0.480348 0.446534 -0.754899 0.480348 0.446534 -0.754899 0.569516 0.446534 -0.690115 0.569516 0.446534 -0.690115 0.569516 0.446534 -0.690115 -0.055109 0.446534 -0.893068 -0.055109 0.446534 -0.893068 -0.055109 0.446534 -0.893068 0.055109 0.446534 -0.893068 0.055109 0.446534 -0.893068 0.055109 0.446534 -0.893068 -0.569516 0.446534 -0.690115 -0.569516 0.446534 -0.690115 -0.569516 0.446534 -0.690115 -0.480348 0.446534 -0.754899 -0.480348 0.446534 -0.754899 -0.480348 0.446534 -0.754899 -0.866388 0.446534 -0.223561 -0.866388 0.446534 -0.223562 -0.866388 0.446534 -0.223561 -0.832329 0.446534 -0.328385 -0.832329 0.446534 -0.328385 -0.832329 0.446534 -0.328385 -0.832329 0.446534 0.328385 -0.832329 0.446534 0.328385 -0.832329 0.446534 0.328385 -0.866388 0.446534 0.223562 -0.866388 0.446534 0.223562 -0.866388 0.446534 0.223562 -0.480348 0.446534 0.754899 -0.480348 0.446534 0.754899 -0.480348 0.446534 0.754899 -0.569516 0.446534 0.690115 -0.569516 0.446534 0.690115 -0.569516 0.446534 0.690115 0.055109 0.446534 0.893068 0.055109 0.446534 0.893068 0.055109 0.446534 0.893068 -0.055109 0.446534 0.893068 -0.055109 0.446534 0.893068 -0.055109 0.446534 0.893068 0.569516 0.446534 0.690115 0.569516 0.446534 0.690115 0.569516 0.446534 0.690115 0.480348 0.446534 0.754899 0.480348 0.446534 0.754899 0.480348 0.446534 0.754899 0.866388 0.446534 0.223562 0.866388 0.446534 0.223562 0.866388 0.446534 0.223562 0.832329 0.446534 0.328385 0.832329 0.446534 0.328385 0.832328 0.446534 0.328385 0.832329 0.446534 -0.328383 0.832329 0.446534 -0.328383 0.832329 0.446534 -0.328383 </float_array>
     <technique_common>
      <accessor source="#ID13-array" count="120" stride="3">
       <param name="X" type="float"/>
       <param name="Y" type="float"/>
       <param name="Z" type="float"/>
      </accessor>
     </technique_common>
    </source>
    <source id="pCone2-UV0">
     <float_array id="ID14-array" count="240">0.702254 0.103054 0.737764 0.172746 0.5 0.25 0.646946 0.047746 0.702254 0.103054 0.5 0.25 0.577254 0.012236 0.646946 0.047746 0.5 0.25 0.5 0 0.577254 0.012236 0.5 0.25 0.422746 0.012236 0.5 0 0.5 0.25 0.353054 0.047746 0.422746 0.012236 0.5 0.25 0.297746 0.103054 0.353054 0.047746 0.5 0.25 0.262236 0.172746 0.297746 0.103054 0.5 0.25 0.25 0.25 0.262236 0.172746 0.5 0.25 0.262236 0.327254 0.25 0.25 0.5 0.25 0.297746 0.396946 0.262236 0.327254 0.5 0.25 0.353054 0.452254 0.297746 0.396946 0.5 0.25 0.422746 0.487764 0.353054 0.452254 0.5 0.25 0.5 0.5 0.422746 0.487764 0.5 0.25 0.577254 0.487764 0.5 0.5 0.5 0.25 0.646946 0.452254 0.577254 0.487764 0.5 0.25 0.702254 0.396946 0.646946 0.452254 0.5 0.25 0.737764 0.327254 0.702254 0.396946 0.5 0.25 0.75 0.25 0.737764 0.327254 0.5 0.25 0.737764 0.172746 0.75 0.25 0.5 0.25 0.25 0.5 0.275 0.5 0.5 1 0.275 0.5 0.3 0.5 0.5 1 0.3 0.5 0.325 0.5 0.5 1 0.325 0.5 0.35 0.5 0.5 1 0.35 0.5 0.375 0.5 0.5 1 0.375 0.5 0.4 0.5 0.5 1 0.4 0.5 0.425 0.5 0.5 1 0.425 0.5 0.45 0.5 0.5 1 0.45 0.5 0.475 0.5 0.5 1 0.475 0.5 0.5 0.5 0.5 1 0.5 0.5 0.525 0.5 0.5 1 0.525 0.5 0.55 0.5 0.5 1 0.55 0.5 0.575 0.5 0.5 1 0.575 0.5 0.6 0.5 0.5 1 0.6 0.5 0.625 0.5 0.5 1 0.625 0.5 0.65 0.5 0.5 1 0.65 0.5 0.675 0.5 0.5 1 0.675 0.5 0.7 0.5 0.5 1 0.7 0.5 0.725 0.5 0.5 1 0.725 0.5 0.75 0.5 0.5 1 </float_array>
     <technique_common>
      <accessor source="#ID14-array" count="120" stride="2">
       <param name="S" type="float"/>
       <param name="T" type="float"/>
      </accessor>
     </technique_common>
    </source>
    <vertices id="pCone2-POSITION-vertices">
     <input semantic="POSITION" source="#pCone2-POSITION"/>
    </vertices>
    <triangles count="40" material="geometryElement15">
     <input semantic="VERTEX" offset="0" source="#pCone2-POSITION-vertices"/>
     <input semantic="NORMAL" offset="0" source="#pCone2-Normal0"/>
     <input semantic="TEXCOORD" offset="0" source="#pCone2-UV0" set="1"/>
     <p>0 1 2 3 4 5 6 7 8 9 10 11 12 13 14 15 16 17 18 19 20 21 22 23 24 25 26 27 28 29 30 31 32 33 34 35 36 37 38 39 40 41 42 43 44 45 46 47 48 49 50 51 52 53 54 55 56 57 58 59 60 61 62 63 64 65 66 67 68 69 70 71 72 73 74 75 76 77 78 79 80 81 82 83 84 85 86 87 88 89 90 91 92 93 94 95 96 97 98 99 100 101 102 103 104 105 106 107 108 109 110 111 112 113 114 115 116 117 118 119 </p>
    </triangles>
   </mesh>
  </geometry>
  <geometry id="geometry16">
   <mesh>
    <source id="pCone3-POSITION">
     <float_array id="ID17-array" count="360">0.809018 -1 -0.587786 0.951057 -0.861503 -0.309017 0 -1 0 0.587786 -0.861503 -0.809017 0.809018 -1 -0.587786 0 -1 0 0.309017 -1 -0.951057 0.587786 -0.861503 -0.809017 0 -1 0 0 -0.861503 -1 0.309017 -1 -0.951057 0 -1 0 -0.309017 -1 -0.951057 0 -0.861503 -1 0 -1 0 -0.587785 -0.861503 -0.809017 -0.309017 -1 -0.951057 0 -1 0 -0.809017 -1 -0.587785 -0.587785 -0.861503 -0.809017 0 -1 0 -0.951057 -0.861503 -0.309017 -0.809017 -1 -0.587785 0 -1 0 -1 -1 0 -0.951057 -0.861503 -0.309017 0 -1 0 -0.951057 -0.861503 0.309017 -1 -1 0 0 -1 0 -0.809017 -1 0.587785 -0.951057 -0.861503 0.309017 0 -1 0 -0.587785 -0.861503 0.809017 -0.809017 -1 0.587785 0 -1 0 -0.309017 -1 0.951057 -0.587785 -0.861503 0.809017 0 -1 0 -0 -0.861503 1 -0.309017 -1 0.951057 0 -1 0 0.309017 -1 0.951057 -0 -0.861503 1 0 -1 0 0.587785 -0.861503 0.809017 0.309017 -1 0.951057 0 -1 0 0.809017 -1 0.587785 0.587785 -0.861503 0.809017 0 -1 0 0.951057 -0.861503 0.309017 0.809017 -1 0.587785 0 -1 0 1 -1 0 0.951057 -0.861503 0.309017 0 -1 0 0.951057 -0.861503 -0.309017 1 -1 0 0 -1 0 0.951057 -0.861503 -0.309017 0.809018 -1 -0.587786 0 1 0 0.809018 -1 -0.587786 0.587786 -0.861503 -0.809017 0 1 0 0.587786 -0.861503 -0.809017 0.309017 -1 -0.951057 0 1 0 0.309017 -1 -0.951057 0 -0.861503 -1 0 1 0 0 -0.861503 -1 -0.309017 -1 -0.951057 0 1 0 -0.309017 -1 -0.951057 -0.587785 -0.861503 -0.809017 0 1 0 -0.587785 -0.861503 -0.809017 -0.809017 -1 -0.587785 0 1 0 -0.809017 -1 -0.587785 -0.951057 -0.861503 -0.309017 0 1 0 -0.951057 -0.861503 -0.309017 -1 -1 0 0 1 0 -1 -1 0 -0.951057 -0.861503 0.309017 0 1 0 -0.951057 -0.861503 0.309017 -0.809017 -1 0.587785 0 1 0 -0.809017 -1 0.587785 -0.587785 -0.861503 0.809017 0 1 0 -0.587785 -0.861503 0.809017 -0.309017 -1 0.951057 0 1 0 -0.309017 -1 0.951057 -0 -0.861503 1 0 1 0 -0 -0.861503 1 0.309017 -1 0.951057 0 1 0 0.309017 -1 0.951057 0.587785 -0.861503 0.809017 0 1 0 0.587785 -0.861503 0.809017 0.809017 -1 0.587785 0 1 0 0.809017 -1 0.587785 0.951057 -0.861503 0.309017 0 1 0 0.951057 -0.861503 0.309017 1 -1 0 0 1 0 1 -1 0 0.951057 -0.861503 -0.309017 0 1 0 </float_array>
     <technique_common>
      <accessor source="#ID17-array" count="120" stride="3">
       <param name="X" type="float"/>
       <param name="Y" type="float"/>
       <param name="Z" type="float"/>
      </accessor>
     </technique_common>
    </source>
    <source id="pCone3-Normal0">
     <float_array id="ID18-array" count="360">0.240396 -0.91254 0.330877 0.240396 -0.91254 0.330877 0.240396 -0.91254 0.330877 -0.240396 -0.91254 -0.330877 -0.240396 -0.91254 -0.330877 -0.240396 -0.91254 -0.330877 0.388969 -0.91254 0.126384 0.388969 -0.91254 0.126384 0.388969 -0.91254 0.126384 -0.388969 -0.91254 -0.126384 -0.388969 -0.91254 -0.126384 -0.388969 -0.91254 -0.126384 0.388969 -0.91254 -0.126384 0.388969 -0.91254 -0.126384 0.388969 -0.91254 -0.126384 -0.388969 -0.91254 0.126384 -0.388969 -0.91254 0.126384 -0.388969 -0.91254 0.126384 0.240396 -0.91254 -0.330877 0.240396 -0.91254 -0.330877 0.240396 -0.91254 -0.330877 -0.240396 -0.91254 0.330877 -0.240396 -0.91254 0.330877 -0.240396 -0.91254 0.330877 0 -0.91254 -0.408987 0 -0.91254 -0.408987 0 -0.91254 -0.408987 0 -0.91254 0.408987 0 -0.91254 0.408987 0 -0.91254 0.408987 -0.240396 -0.91254 -0.330877 -0.240396 -0.91254 -0.330877 -0.240396 -0.91254 -0.330877 0.240396 -0.91254 0.330877 0.240396 -0.91254 0.330877 0.240396 -0.91254 0.330877 -0.38897 -0.91254 -0.126384 -0.388969 -0.91254 -0.126384 -0.38897 -0.91254 -0.126384 0.38897 -0.91254 0.126384 0.38897 -0.91254 0.126384 0.38897 -0.91254 0.126384 -0.38897 -0.91254 0.126384 -0.38897 -0.91254 0.126384 -0.38897 -0.91254 0.126384 0.388969 -0.91254 -0.126384 0.38897 -0.91254 -0.126384 0.38897 -0.91254 -0.126384 -0.240396 -0.91254 0.330877 -0.240396 -0.91254 0.330877 -0.240396 -0.91254 0.330877 0.240396 -0.91254 -0.330877 0.240396 -0.91254 -0.330877 0.240396 -0.91254 -0.330877 0 -0.91254 0.408987 0 -0.91254 0.408987 0 -0.91254 0.408987 0 -0.91254 -0.408987 0 -0.91254 -0.408987 0 -0.91254 -0.408987 0.687875 0.446443 -0.57229 0.687875 0.446444 -0.57229 0.687875 0.446443 -0.57229 0.756845 0.446443 -0.477361 0.756845 0.446443 -0.477361 0.756845 0.446443 -0.477361 0.220118 0.446443 -0.867315 0.220118 0.446443 -0.867315 0.220118 0.446443 -0.867315 0.331715 0.446443 -0.831056 0.331715 0.446443 -0.831056 0.331715 0.446443 -0.831056 -0.331715 0.446443 -0.831055 -0.331715 0.446443 -0.831055 -0.331715 0.446443 -0.831055 -0.220119 0.446443 -0.867315 -0.220119 0.446443 -0.867315 -0.220119 0.446443 -0.867315 -0.756846 0.446443 -0.47736 -0.756846 0.446443 -0.47736 -0.756846 0.446443 -0.47736 -0.687875 0.446443 -0.57229 -0.687875 0.446443 -0.57229 -0.687875 0.446443 -0.57229 -0.892886 0.446443 0.05867 -0.892886 0.446443 0.05867 -0.892886 0.446443 0.05867 -0.892886 0.446443 -0.05867 -0.892886 0.446443 -0.05867 -0.892886 0.446443 -0.05867 -0.687875 0.446443 0.57229 -0.687875 0.446443 0.57229 -0.687875 0.446443 0.57229 -0.756846 0.446443 0.477361 -0.756845 0.446443 0.477361 -0.756846 0.446443 0.477361 -0.220119 0.446443 0.867315 -0.220119 0.446443 0.867315 -0.220119 0.446443 0.867316 -0.331716 0.446443 0.831055 -0.331715 0.446443 0.831056 -0.331715 0.446443 0.831055 0.331716 0.446443 0.831056 0.331716 0.446443 0.831055 0.331716 0.446443 0.831055 0.220119 0.446443 0.867315 0.220119 0.446443 0.867315 0.220119 0.446443 0.867315 0.756846 0.446443 0.477361 0.756846 0.446443 0.477361 0.756846 0.446443 0.477361 0.687875 0.446443 0.57229 0.687875 0.446443 0.57229 0.687875 0.446443 0.57229 0.892886 0.446443 -0.05867 0.892887 0.446443 -0.05867 0.892887 0.446443 -0.05867 0.892886 0.446443 0.058672 0.892886 0.446443 0.058672 0.892886 0.446443 0.058672 </float_array>
     <technique_common>
      <accessor source="#ID18-array" count="120" stride="3">
       <param name="X" type="float"/>
       <param name="Y" type="float"/>
       <param name="Z" type="float"/>
      </accessor>
     </technique_common>
    </source>
    <source id="pCone3-UV0">
     <float_array id="ID19-array" count="240">0.702254 0.103054 0.737764 0.172746 0.5 0.25 0.646946 0.047746 0.702254 0.103054 0.5 0.25 0.577254 0.012236 0.646946 0.047746 0.5 0.25 0.5 0 0.577254 0.012236 0.5 0.25 0.422746 0.012236 0.5 0 0.5 0.25 0.353054 0.047746 0.422746 0.012236 0.5 0.25 0.297746 0.103054 0.353054 0.047746 0.5 0.25 0.262236 0.172746 0.297746 0.103054 0.5 0.25 0.25 0.25 0.262236 0.172746 0.5 0.25 0.262236 0.327254 0.25 0.25 0.5 0.25 0.297746 0.396946 0.262236 0.327254 0.5 0.25 0.353054 0.452254 0.297746 0.396946 0.5 0.25 0.422746 0.487764 0.353054 0.452254 0.5 0.25 0.5 0.5 0.422746 0.487764 0.5 0.25 0.577254 0.487764 0.5 0.5 0.5 0.25 0.646946 0.452254 0.577254 0.487764 0.5 0.25 0.702254 0.396946 0.646946 0.452254 0.5 0.25 0.737764 0.327254 0.702254 0.396946 0.5 0.25 0.75 0.25 0.737764 0.327254 0.5 0.25 0.737764 0.172746 0.75 0.25 0.5 0.25 0.25 0.5 0.275 0.5 0.5 1 0.275 0.5 0.3 0.5 0.5 1 0.3 0.5 0.325 0.5 0.5 1 0.325 0.5 0.35 0.5 0.5 1 0.35 0.5 0.375 0.5 0.5 1 0.375 0.5 0.4 0.5 0.5 1 0.4 0.5 0.425 0.5 0.5 1 0.425 0.5 0.45 0.5 0.5 1 0.45 0.5 0.475 0.5 0.5 1 0.475 0.5 0.5 0.5 0.5 1 0.5 0.5 0.525 0.5 0.5 1 0.525 0.5 0.55 0.5 0.5 1 0.55 0.5 0.575 0.5 0.5 1 0.575 0.5 0.6 0.5 0.5 1 0.6 0.5 0.625 0.5 0.5 1 0.625 0.5 0.65 0.5 0.5 1 0.65 0.5 0.675 0.5 0.5 1 0.675 0.5 0.7 0.5 0.5 1 0.7 0.5 0.725 0.5 0.5 1 0.725 0.5 0.75 0.5 0.5 1 </float_array>
     <technique_common>
      <accessor source="#ID19-array" count="120" stride="2">
       <param name="S" type="float"/>
       <param name="T" type="float"/>
      </accessor>
     </technique_common>
    </source>
    <vertices id="pCone3-POSITION-vertices">
     <input semantic="POSITION" source="#pCone3-POSITION"/>
    </vertices>
    <triangles count="40" material="geometryElement20">
     <input semantic="VERTEX" offset="0" source="#pCone3-POSITION-vertices"/>
     <input semantic="NORMAL" offset="0" source="#pCone3-Normal0"/>
     <input semantic="TEXCOORD" offset="0" source="#pCone3-UV0" set="1"/>
     <p>0 1 2 3 4 5 6 7 8 9 10 11 12 13 14 15 16 17 18 19 20 21 22 23 24 25 26 27 28 29 30 31 32 33 34 35 36 37 38 39 40 41 42 43 44 45 46 47 48 49 50 51 52 53 54 55 56 57 58 59 60 61 62 63 64 65 66 67 68 69 70 71 72 73 74 75 76 77 78 79 80 81 82 83 84 85 86 87 88 89 90 91 92 93 94 95 96 97 98 99 100 101 102 103 104 105 106 107 108 109 110 111 112 113 114 115 116 117 118 119 </p>
    </triangles>
   </mesh>
  </geometry>
  <geometry id="geometry21">
   <mesh>
    <source id="pCone4-POSITION">
     <float_array id="ID22-array" count="360">0.809018 -0.886197 -0.587786 0.951057 -1 -0.309017 0 -1 0 0.587786 -1 -0.809017 0.809018 -0.886197 -0.587786 0 -1 0 0.309017 -0.886197 -0.951057 0.587786 -1 -0.809017 0 -1 0 0 -1 -1 0.309017 -0.886197 -0.951057 0 -1 0 -0.309017 -0.886197 -0.951057 0 -1 -1 0 -1 0 -0.587785 -1 -0.809017 -0.309017 -0.886197 -0.951057 0 -1 0 -0.809017 -0.886197 -0.587785 -0.587785 -1 -0.809017 0 -1 0 -0.951057 -1 -0.309017 -0.809017 -0.886197 -0.587785 0 -1 0 -1 -0.886197 0 -0.951057 -1 -0.309017 0 -1 0 -0.951057 -1 0.309017 -1 -0.886197 0 0 -1 0 -0.809017 -0.886197 0.587785 -0.951057 -1 0.309017 0 -1 0 -0.587785 -1 0.809017 -0.809017 -0.886197 0.587785 0 -1 0 -0.309017 -0.886197 0.951057 -0.587785 -1 0.809017 0 -1 0 -0 -1 1 -0.309017 -0.886197 0.951057 0 -1 0 0.309017 -0.886197 0.951057 -0 -1 1 0 -1 0 0.587785 -1 0.809017 0.309017 -0.886197 0.951057 0 -1 0 0.809017 -0.886197 0.587785 0.587785 -1 0.809017 0 -1 0 0.951057 -1 0.309017 0.809017 -0.886197 0.587785 0 -1 0 1 -0.886197 0 0.951057 -1 0.309017 0 -1 0 0.951057 -1 -0.309017 1 -0.886197 0 0 -1 0 0.951057 -1 -0.309017 0.809018 -0.886197 -0.587786 0 1 0 0.809018 -0.886197 -0.587786 0.587786 -1 -0.809017 0 1 0 0.587786 -1 -0.809017 0.309017 -0.886197 -0.951057 0 1 0 0.309017 -0.886197 -0.951057 0 -1 -1 0 1 0 0 -1 -1 -0.309017 -0.886197 -0.951057 0 1 0 -0.309017 -0.886197 -0.951057 -0.587785 -1 -0.809017 0 1 0 -0.587785 -1 -0.809017 -0.809017 -0.886197 -0.587785 0 1 0 -0.809017 -0.886197 -0.587785 -0.951057 -1 -0.309017 0 1 0 -0.951057 -1 -0.309017 -1 -0.886197 0 0 1 0 -1 -0.886197 0 -0.951057 -1 0.309017 0 1 0 -0.951057 -1 0.309017 -0.809017 -0.886197 0.587785 0 1 0 -0.809017 -0.886197 0.587785 -0.587785 -1 0.809017 0 1 0 -0.587785 -1 0.809017 -0.309017 -0.886197 0.951057 0 1 0 -0.309017 -0.886197 0.951057 -0 -1 1 0 1 0 -0 -1 1 0.309017 -0.886197 0.951057 0 1 0 0.309017 -0.886197 0.951057 0.587785 -1 0.809017 0 1 0 0.587785 -1 0.809017 0.809017 -0.886197 0.587785 0 1 0 0.809017 -0.886197 0.587785 0.951057 -1 0.309017 0 1 0 0.951057 -1 0.309017 1 -0.886197 0 0 1 0 1 -0.886197 0 0.951057 -1 -0.309017 0 1 0 </float_array>
     <technique_common>
      <accessor source="#ID22-array" count="120" stride="3">
       <param name="X" type="float"/>
       <param name="Y" type="float"/>
       <param name="Z" type="float"/>
      </accessor>
     </technique_common>
    </source>
    <source id="pCone4-Normal0">
     <float_array id="ID23-array" count="360">-0.106792 -0.938388 -0.328671 -0.106792 -0.938388 -0.328671 -0.106792 -0.938388 -0.328671 0.279584 -0.938388 0.203129 0.279584 -0.938388 0.203129 0.279584 -0.938388 0.203129 -0.279584 -0.938387 -0.20313 -0.279584 -0.938387 -0.20313 -0.279584 -0.938388 -0.20313 0.345585 -0.938388 0 0.345585 -0.938388 0 0.345585 -0.938388 0 -0.345585 -0.938388 0 -0.345585 -0.938387 0 -0.345585 -0.938388 0 0.279584 -0.938388 -0.20313 0.279584 -0.938387 -0.20313 0.279584 -0.938388 -0.20313 -0.279584 -0.938387 0.20313 -0.279584 -0.938387 0.20313 -0.279584 -0.938387 0.20313 0.106792 -0.938388 -0.328671 0.106792 -0.938387 -0.328671 0.106792 -0.938388 -0.328671 -0.106792 -0.938387 0.328671 -0.106792 -0.938388 0.328671 -0.106792 -0.938387 0.328671 -0.106792 -0.938388 -0.328671 -0.106792 -0.938387 -0.328671 -0.106792 -0.938387 -0.328671 0.106792 -0.938387 0.328671 0.106792 -0.938388 0.328671 0.106792 -0.938388 0.328671 -0.279584 -0.938388 -0.20313 -0.279584 -0.938388 -0.20313 -0.279584 -0.938388 -0.20313 0.279584 -0.938387 0.20313 0.279584 -0.938387 0.20313 0.279584 -0.938387 0.20313 -0.345585 -0.938388 -0 -0.345585 -0.938388 -0 -0.345585 -0.938387 -0 0.345585 -0.938388 0 0.345585 -0.938388 0 0.345585 -0.938387 0 -0.279584 -0.938387 0.20313 -0.279584 -0.938388 0.20313 -0.279584 -0.938387 0.20313 0.279584 -0.938387 -0.20313 0.279584 -0.938387 -0.20313 0.279584 -0.938387 -0.20313 -0.106792 -0.938388 0.328671 -0.106792 -0.938387 0.328671 -0.106792 -0.938388 0.328671 0.106792 -0.938387 -0.328671 0.106792 -0.938387 -0.328671 0.106792 -0.938387 -0.328671 0.106792 -0.938387 0.328671 0.106792 -0.938387 0.328671 0.106792 -0.938387 0.328671 0.857541 0.447095 -0.254419 0.857541 0.447095 -0.254419 0.857541 0.447095 -0.254419 0.506961 0.447095 -0.736951 0.506961 0.447095 -0.736951 0.506961 0.447095 -0.73695 0.544222 0.447095 -0.709879 0.544222 0.447095 -0.709879 0.544222 0.447095 -0.709879 -0.023028 0.447095 -0.89419 -0.023028 0.447095 -0.89419 -0.023028 0.447095 -0.89419 0.023028 0.447095 -0.89419 0.023028 0.447095 -0.89419 0.023028 0.447095 -0.89419 -0.544222 0.447095 -0.709879 -0.544222 0.447095 -0.709879 -0.544222 0.447095 -0.709879 -0.506962 0.447095 -0.73695 -0.506962 0.447095 -0.73695 -0.506962 0.447095 -0.73695 -0.857541 0.447095 -0.254419 -0.857541 0.447095 -0.254419 -0.857541 0.447095 -0.254419 -0.843309 0.447095 -0.298221 -0.843309 0.447095 -0.298221 -0.843309 0.447095 -0.298221 -0.843309 0.447095 0.298221 -0.843309 0.447095 0.298221 -0.843309 0.447095 0.298221 -0.857541 0.447095 0.254419 -0.857541 0.447095 0.254419 -0.857541 0.447095 0.254419 -0.506961 0.447095 0.736951 -0.506961 0.447095 0.736951 -0.506961 0.447095 0.736951 -0.544222 0.447095 0.709879 -0.544222 0.447095 0.709879 -0.544222 0.447095 0.709879 0.023028 0.447095 0.89419 0.023028 0.447095 0.89419 0.023028 0.447095 0.89419 -0.023028 0.447095 0.89419 -0.023028 0.447095 0.89419 -0.023028 0.447095 0.89419 0.544222 0.447095 0.709879 0.544222 0.447095 0.709879 0.544222 0.447095 0.709879 0.506961 0.447095 0.736951 0.506962 0.447095 0.736951 0.506962 0.447095 0.736951 0.857541 0.447095 0.254419 0.857541 0.447095 0.254419 0.857541 0.447095 0.254419 0.843309 0.447095 0.298221 0.843309 0.447095 0.298221 0.843309 0.447095 0.298221 0.84331 0.447095 -0.298219 0.84331 0.447095 -0.298219 0.843309 0.447095 -0.298219 </float_array>
     <technique_common>
      <accessor source="#ID23-array" count="120" stride="3">
       <param name="X" type="float"/>
       <param name="Y" type="float"/>
       <param name="Z" type="float"/>
      </accessor>
     </technique_common>
    </source>
    <source id="pCone4-UV0">
     <float_array id="ID24-array" count="240">0.702254 0.103054 0.737764 0.172746 0.5 0.25 0.646946 0.047746 0.702254 0.103054 0.5 0.25 0.577254 0.012236 0.646946 0.047746 0.5 0.25 0.5 0 0.577254 0.012236 0.5 0.25 0.422746 0.012236 0.5 0 0.5 0.25 0.353054 0.047746 0.422746 0.012236 0.5 0.25 0.297746 0.103054 0.353054 0.047746 0.5 0.25 0.262236 0.172746 0.297746 0.103054 0.5 0.25 0.25 0.25 0.262236 0.172746 0.5 0.25 0.262236 0.327254 0.25 0.25 0.5 0.25 0.297746 0.396946 0.262236 0.327254 0.5 0.25 0.353054 0.452254 0.297746 0.396946 0.5 0.25 0.422746 0.487764 0.353054 0.452254 0.5 0.25 0.5 0.5 0.422746 0.487764 0.5 0.25 0.577254 0.487764 0.5 0.5 0.5 0.25 0.646946 0.452254 0.577254 0.487764 0.5 0.25 0.702254 0.396946 0.646946 0.452254 0.5 0.25 0.737764 0.327254 0.702254 0.396946 0.5 0.25 0.75 0.25 0.737764 0.327254 0.5 0.25 0.737764 0.172746 0.75 0.25 0.5 0.25 0.25 0.5 0.275 0.5 0.5 1 0.275 0.5 0.3 0.5 0.5 1 0.3 0.5 0.325 0.5 0.5 1 0.325 0.5 0.35 0.5 0.5 1 0.35 0.5 0.375 0.5 0.5 1 0.375 0.5 0.4 0.5 0.5 1 0.4 0.5 0.425 0.5 0.5 1 0.425 0.5 0.45 0.5 0.5 1 0.45 0.5 0.475 0.5 0.5 1 0.475 0.5 0.5 0.5 0.5 1 0.5 0.5 0.525 0.5 0.5 1 0.525 0.5 0.55 0.5 0.5 1 0.55 0.5 0.575 0.5 0.5 1 0.575 0.5 0.6 0.5 0.5 1 0.6 0.5 0.625 0.5 0.5 1 0.625 0.5 0.65 0.5 0.5 1 0.65 0.5 0.675 0.5 0.5 1 0.675 0.5 0.7 0.5 0.5 1 0.7 0.5 0.725 0.5 0.5 1 0.725 0.5 0.75 0.5 0.5 1 </float_array>
     <technique_common>
      <accessor source="#ID24-array" count="120" stride="2">
       <param name="S" type="float"/>
       <param name="T" type="float"/>
      </accessor>
     </technique_common>
    </source>
    <vertices id="pCone4-POSITION-vertices">
     <input semantic="POSITION" source="#pCone4-POSITION"/>
    </vertices>
    <triangles count="40" material="geometryElement25">
     <input semantic="VERTEX" offset="0" source="#pCone4-POSITION-vertices"/>
     <input semantic="NORMAL" offset="0" source="#pCone4-Normal0"/>
     <input semantic="TEXCOORD" offset="0" source="#pCone4-UV0" set="1"/>
     <p>0 1 2 3 4 5 6 7 8 9 10 11 12 13 14 15 16 17 18 19 20 21 22 23 24 25 26 27 28 29 30 31 32 33 34 35 36 37 38 39 40 41 42 43 44 45 46 47 48 49 50 51 52 53 54 55 56 57 58 59 60 61 62 63 64 65 66 67 68 69 70 71 72 73 74 75 76 77 78 79 80 81 82 83 84 85 86 87 88 89 90 91 92 93 94 95 96 97 98 99 100 101 102 103 104 105 106 107 108 109 110 111 112 113 114 115 116 117 118 119 </p>
    </triangles>
   </mesh>
  </geometry>
 </library_geometries>
 <library_visual_scenes>
  <visual_scene id="scene26">
   <node id="Conifere" name="Conifere">
    <node id="pCylinder4" name="pCylinder4">
     <matrix>0.136564 0 0 0 0 0.136564 0 0.119237 0 0 0.136564 0 0 0 0 1 </matrix>
     <instance_geometry url="#geometry1">
      <bind_material>
       <technique_common>
        <instance_material symbol="geometryElement5" target="#Legno"/>
       </technique_common>
      </bind_material>
     </instance_geometry>
    </node>
    <node id="pCone1" name="pCone1">
     <matrix>0.801039 0 0 0.126697 0 0.639315 0 5.300738 0 0 0.801039 0.059718 0 0 0 1 </matrix>
     <instance_geometry url="#geometry6">
      <bind_material>
       <technique_common>
        <instance_material symbol="geometryElement10" target="#lambert5"/>
       </technique_common>
      </bind_material>
     </instance_geometry>
    </node>
    <node id="pCone2" name="pCone2">
     <matrix>1.147884 0 0 0.126697 0 0.824489 0 4.602184 0 0 1.147884 0.059718 0 0 0 1 </matrix>
     <instance_geometry url="#geometry11">
      <bind_material>
       <technique_common>
        <instance_material symbol="geometryElement15" target="#lambert5"/>
       </technique_common>
      </bind_material>
     </instance_geometry>
    </node>
    <node id="pCone3" name="pCone3">
     <matrix>1.480037 0 0 0.126697 0 1.063064 0 3.870727 0 0 1.480037 0.059718 0 0 0 1 </matrix>
     <instance_geometry url="#geometry16">
      <bind_material>
       <technique_common>
        <instance_material symbol="geometryElement20" target="#lambert5"/>
       </technique_common>
      </bind_material>
     </instance_geometry>
    </node>
    <node id="pCone4" name="pCone4">
     <matrix>1.704186 0 0 0.126697 0 1.224063 0 2.985813 0 0 1.704186 0.059718 0 0 0 1 </matrix>
     <instance_geometry url="#geometry21">
      <bind_material>
       <technique_common>
        <instance_material symbol="geometryElement25" target="#lambert5"/>
       </technique_common>
      </bind_material>
     </instance_geometry>
    </node>
   </node>
  </visual_scene>
 </library_visual_scenes>
 <scene>
  <instance_visual_scene url="#scene26"/>
 </scene>
</COLLADA>
